,timestamp,open,high,low,close,volume
0,2019-07-24 13:45:00,27.530000686645508,27.559999465942383,27.520000457763672,27.540000915527344,0.0
1,2019-07-24 13:50:00,27.540000915527344,27.549999237060547,27.510000228881836,27.530000686645508,145100.0
2,2019-07-24 13:55:00,27.520000457763672,27.530000686645508,27.510000228881836,27.520000457763672,83900.0
3,2019-07-24 14:00:00,27.510000228881836,27.520000457763672,27.5,27.5,176200.0
4,2019-07-24 14:05:00,27.5,27.510000228881836,27.5,27.510000228881836,114700.0
5,2019-07-24 14:10:00,27.5,27.520000457763672,27.489999771118164,27.510000228881836,146400.0
6,2019-07-24 14:15:00,27.5,27.520000457763672,27.5,27.520000457763672,79800.0
7,2019-07-24 14:20:00,27.510000228881836,27.540000915527344,27.510000228881836,27.540000915527344,131100.0
8,2019-07-24 14:25:00,27.530000686645508,27.540000915527344,27.5,27.510000228881836,100700.0
9,2019-07-24 14:30:00,27.510000228881836,27.520000457763672,27.5,27.510000228881836,98100.0
10,2019-07-24 14:35:00,27.5,27.520000457763672,27.479999542236328,27.5,261200.0
11,2019-07-24 14:40:00,27.510000228881836,27.510000228881836,27.479999542236328,27.5,229000.0
12,2019-07-24 14:45:00,27.510000228881836,27.520000457763672,27.5,27.5,161600.0
13,2019-07-24 14:50:00,27.5,27.510000228881836,27.5,27.5,216700.0
14,2019-07-24 14:55:00,27.5,27.510000228881836,27.489999771118164,27.5,354700.0
15,2019-07-24 15:00:00,27.510000228881836,27.510000228881836,27.469999313354492,27.479999542236328,781600.0
16,2019-07-24 15:05:00,27.469999313354492,27.489999771118164,27.469999313354492,27.479999542236328,301100.0
17,2019-07-24 15:10:00,27.469999313354492,27.479999542236328,27.3799991607666,27.3799991607666,860200.0
18,2019-07-24 15:15:00,27.389999389648438,27.389999389648438,27.360000610351562,27.3799991607666,763800.0
19,2019-07-24 15:20:00,27.3799991607666,27.389999389648438,27.3700008392334,27.3799991607666,162900.0
20,2019-07-24 15:25:00,27.3700008392334,27.389999389648438,27.299999237060547,27.309999465942383,1106600.0
21,2019-07-24 15:30:00,27.309999465942383,27.3799991607666,27.299999237060547,27.350000381469727,349200.0
22,2019-07-24 15:35:00,27.34000015258789,27.3799991607666,27.34000015258789,27.3799991607666,162800.0
23,2019-07-24 15:40:00,27.3799991607666,27.389999389648438,27.3700008392334,27.3700008392334,322600.0
24,2019-07-24 15:45:00,27.3700008392334,27.389999389648438,27.3700008392334,27.3799991607666,85900.0
25,2019-07-24 15:50:00,27.3700008392334,27.40999984741211,27.3700008392334,27.389999389648438,161400.0
26,2019-07-24 15:55:00,27.399999618530273,27.399999618530273,27.360000610351562,27.389999389648438,399200.0
27,2019-07-24 16:00:00,27.389999389648438,27.399999618530273,27.329999923706055,27.3700008392334,388200.0
28,2019-07-24 16:05:00,27.360000610351562,27.3700008392334,27.34000015258789,27.360000610351562,154200.0
29,2019-07-24 16:10:00,27.360000610351562,27.360000610351562,27.31999969482422,27.34000015258789,300000.0
30,2019-07-24 16:15:00,27.34000015258789,27.3700008392334,27.329999923706055,27.360000610351562,219100.0
31,2019-07-24 16:20:00,27.350000381469727,27.399999618530273,27.350000381469727,27.3799991607666,345000.0
32,2019-07-24 16:25:00,27.3700008392334,27.6299991607666,27.350000381469727,27.350000381469727,587100.0
33,2019-07-24 16:30:00,27.360000610351562,27.3700008392334,27.34000015258789,27.3700008392334,212700.0
34,2019-07-24 16:35:00,27.360000610351562,27.3799991607666,27.34000015258789,27.3700008392334,225100.0
35,2019-07-24 16:40:00,27.3700008392334,27.3799991607666,27.350000381469727,27.360000610351562,346000.0
36,2019-07-24 16:45:00,27.360000610351562,27.3700008392334,27.350000381469727,27.360000610351562,368900.0
37,2019-07-24 16:50:00,27.350000381469727,27.3700008392334,27.329999923706055,27.350000381469727,620600.0
38,2019-07-24 16:55:00,,,,,
39,2019-07-24 17:05:00,27.35,27.35,27.35,27.35,2992800.0
40,2019-07-25 10:00:00,,,,,
41,2019-07-25 10:05:00,27.469999313354492,27.479999542236328,27.43000030517578,27.479999542236328,80700.0
42,2019-07-25 10:10:00,27.479999542236328,27.5,27.40999984741211,27.420000076293945,395700.0
43,2019-07-25 10:15:00,27.40999984741211,27.450000762939453,27.360000610351562,27.3700008392334,299300.0
44,2019-07-25 10:20:00,27.3700008392334,27.3799991607666,27.31999969482422,27.350000381469727,292000.0
45,2019-07-25 10:25:00,27.360000610351562,27.3799991607666,27.34000015258789,27.3700008392334,131000.0
46,2019-07-25 10:30:00,27.360000610351562,27.3700008392334,27.25,27.260000228881836,745900.0
47,2019-07-25 10:35:00,27.260000228881836,27.270000457763672,27.170000076293945,27.18000030517578,583100.0
48,2019-07-25 10:40:00,27.18000030517578,27.219999313354492,27.079999923706055,27.100000381469727,1063300.0
49,2019-07-25 10:45:00,27.110000610351562,27.190000534057617,27.100000381469727,27.18000030517578,474600.0
50,2019-07-25 10:50:00,27.170000076293945,27.18000030517578,27.079999923706055,27.110000610351562,416100.0
51,2019-07-25 10:55:00,27.110000610351562,27.149999618530273,27.100000381469727,27.1200008392334,256600.0
52,2019-07-25 11:00:00,,,,,
53,2019-07-25 11:05:00,27.15999984741211,27.170000076293945,27.1299991607666,27.1299991607666,483800.0
54,2019-07-25 11:10:00,27.1200008392334,27.149999618530273,27.110000610351562,27.1299991607666,254100.0
55,2019-07-25 11:15:00,27.1200008392334,27.15999984741211,27.1200008392334,27.149999618530273,60900.0
56,2019-07-25 11:20:00,27.190000534057617,27.209999084472656,27.170000076293945,27.200000762939453,339300.0
57,2019-07-25 11:25:00,27.190000534057617,27.280000686645508,27.15999984741211,27.229999542236328,439600.0
58,2019-07-25 11:30:00,27.239999771118164,27.270000457763672,27.219999313354492,27.239999771118164,245500.0
59,2019-07-25 11:35:00,27.219999313354492,27.260000228881836,27.200000762939453,27.209999084472656,317900.0
60,2019-07-25 11:40:00,27.200000762939453,27.209999084472656,27.139999389648438,27.149999618530273,446900.0
61,2019-07-25 11:45:00,27.149999618530273,27.190000534057617,27.139999389648438,27.15999984741211,205100.0
62,2019-07-25 11:50:00,27.170000076293945,27.170000076293945,27.100000381469727,27.1299991607666,181700.0
63,2019-07-25 11:55:00,27.139999389648438,27.139999389648438,27.110000610351562,27.1299991607666,148800.0
64,2019-07-25 12:00:00,27.139999389648438,27.15999984741211,27.1200008392334,27.1200008392334,281600.0
65,2019-07-25 12:05:00,27.1200008392334,27.1299991607666,27.049999237060547,27.09000015258789,917200.0
66,2019-07-25 12:10:00,27.06999969482422,27.1200008392334,27.049999237060547,27.06999969482422,258700.0
67,2019-07-25 12:15:00,27.06999969482422,27.100000381469727,27.049999237060547,27.09000015258789,214700.0
68,2019-07-25 12:20:00,27.09000015258789,27.1200008392334,27.079999923706055,27.100000381469727,291300.0
69,2019-07-25 12:25:00,27.09000015258789,27.1200008392334,27.079999923706055,27.079999923706055,162600.0
70,2019-07-25 12:30:00,27.09000015258789,27.1200008392334,27.079999923706055,27.110000610351562,142900.0
71,2019-07-25 12:35:00,27.110000610351562,27.110000610351562,27.079999923706055,27.09000015258789,136600.0
72,2019-07-25 12:40:00,27.09000015258789,27.09000015258789,27.0,27.020000457763672,862000.0
73,2019-07-25 12:45:00,27.020000457763672,27.079999923706055,26.979999542236328,27.059999465942383,261300.0
74,2019-07-25 12:50:00,27.06999969482422,27.06999969482422,26.90999984741211,26.90999984741211,1106600.0
75,2019-07-25 12:55:00,26.920000076293945,26.989999771118164,26.90999984741211,26.979999542236328,858300.0
76,2019-07-25 13:00:00,26.989999771118164,26.989999771118164,26.90999984741211,26.93000030517578,295000.0
77,2019-07-25 13:05:00,26.940000534057617,27.010000228881836,26.93000030517578,27.010000228881836,162500.0
78,2019-07-25 13:10:00,27.0,27.020000457763672,26.979999542236328,26.979999542236328,71000.0
79,2019-07-25 13:15:00,27.040000915527344,27.059999465942383,27.020000457763672,27.040000915527344,232000.0
80,2019-07-25 13:20:00,27.040000915527344,27.049999237060547,27.020000457763672,27.040000915527344,166200.0
81,2019-07-25 13:25:00,27.030000686645508,27.049999237060547,27.030000686645508,27.030000686645508,111400.0
82,2019-07-25 13:30:00,27.030000686645508,27.040000915527344,27.0,27.010000228881836,212700.0
83,2019-07-25 13:35:00,27.010000228881836,27.020000457763672,27.010000228881836,27.020000457763672,188200.0
84,2019-07-25 13:40:00,27.020000457763672,27.030000686645508,27.0,27.030000686645508,97100.0
85,2019-07-25 13:45:00,27.030000686645508,27.06999969482422,27.020000457763672,27.059999465942383,188000.0
86,2019-07-25 13:50:00,27.049999237060547,27.079999923706055,27.049999237060547,27.079999923706055,83400.0
87,2019-07-25 13:55:00,27.06999969482422,27.09000015258789,27.059999465942383,27.059999465942383,125500.0
88,2019-07-25 14:00:00,27.06999969482422,27.06999969482422,27.020000457763672,27.020000457763672,131100.0
89,2019-07-25 14:05:00,27.030000686645508,27.049999237060547,27.0,27.049999237060547,167300.0
90,2019-07-25 14:10:00,27.030000686645508,27.059999465942383,27.030000686645508,27.059999465942383,78000.0
91,2019-07-25 14:15:00,27.059999465942383,27.059999465942383,27.020000457763672,27.030000686645508,144500.0
92,2019-07-25 14:20:00,27.030000686645508,27.059999465942383,27.020000457763672,27.040000915527344,130000.0
93,2019-07-25 14:25:00,27.030000686645508,27.100000381469727,27.030000686645508,27.06999969482422,214700.0
94,2019-07-25 14:30:00,27.06999969482422,27.100000381469727,27.059999465942383,27.100000381469727,112900.0
95,2019-07-25 14:35:00,27.09000015258789,27.100000381469727,27.049999237060547,27.079999923706055,124300.0
96,2019-07-25 14:40:00,27.079999923706055,27.110000610351562,27.059999465942383,27.06999969482422,260000.0
97,2019-07-25 14:45:00,27.06999969482422,27.06999969482422,27.0,27.020000457763672,401700.0
98,2019-07-25 14:50:00,27.020000457763672,27.030000686645508,26.979999542236328,27.020000457763672,168200.0
99,2019-07-25 14:55:00,27.010000228881836,27.020000457763672,26.969999313354492,26.969999313354492,177800.0
100,2019-07-25 15:00:00,26.979999542236328,27.030000686645508,26.959999084472656,27.0,147900.0
101,2019-07-25 15:05:00,27.0,27.030000686645508,26.989999771118164,27.010000228881836,71800.0
102,2019-07-25 15:10:00,27.010000228881836,27.010000228881836,26.979999542236328,27.0,95500.0
103,2019-07-25 15:15:00,27.0,27.010000228881836,26.959999084472656,26.979999542236328,334300.0
104,2019-07-25 15:20:00,26.979999542236328,26.989999771118164,26.950000762939453,26.959999084472656,293600.0
105,2019-07-25 15:25:00,26.959999084472656,26.969999313354492,26.940000534057617,26.950000762939453,156900.0
106,2019-07-25 15:30:00,26.940000534057617,26.989999771118164,26.93000030517578,26.979999542236328,183000.0
107,2019-07-25 15:35:00,26.989999771118164,26.989999771118164,26.90999984741211,26.950000762939453,485700.0
108,2019-07-25 15:40:00,26.940000534057617,26.969999313354492,26.920000076293945,26.950000762939453,113500.0
109,2019-07-25 15:45:00,26.950000762939453,26.950000762939453,26.889999389648438,26.920000076293945,521900.0
110,2019-07-25 15:50:00,26.920000076293945,26.920000076293945,26.8799991607666,26.889999389648438,349500.0
111,2019-07-25 15:55:00,26.899999618530273,26.899999618530273,26.850000381469727,26.8700008392334,368700.0
112,2019-07-25 16:00:00,26.8700008392334,26.8700008392334,26.81999969482422,26.829999923706055,485300.0
113,2019-07-25 16:05:00,26.81999969482422,26.850000381469727,26.81999969482422,26.84000015258789,421000.0
114,2019-07-25 16:10:00,26.829999923706055,26.8700008392334,26.81999969482422,26.829999923706055,373900.0
115,2019-07-25 16:15:00,26.829999923706055,26.850000381469727,26.809999465942383,26.84000015258789,210400.0
116,2019-07-25 16:20:00,26.84000015258789,26.860000610351562,26.829999923706055,26.850000381469727,202200.0
117,2019-07-25 16:25:00,26.850000381469727,26.8799991607666,26.850000381469727,26.8700008392334,308200.0
118,2019-07-25 16:30:00,26.860000610351562,26.889999389648438,26.84000015258789,26.8799991607666,208900.0
119,2019-07-25 16:35:00,26.8799991607666,26.93000030517578,26.8700008392334,26.93000030517578,526800.0
120,2019-07-25 16:40:00,26.90999984741211,26.93000030517578,26.8799991607666,26.899999618530273,481400.0
121,2019-07-25 16:45:00,26.899999618530273,26.920000076293945,26.850000381469727,26.850000381469727,337200.0
122,2019-07-25 16:50:00,26.860000610351562,26.899999618530273,26.829999923706055,26.8700008392334,504700.0
123,2019-07-25 16:55:00,,,,,
124,2019-07-25 17:10:00,26.89,26.89,26.89,26.89,1900900.0
125,2019-07-26 10:00:00,,,,,
126,2019-07-26 10:05:00,26.719999313354492,26.780000686645508,26.510000228881836,26.559999465942383,0.0
127,2019-07-26 10:10:00,26.579999923706055,26.579999923706055,26.270000457763672,26.280000686645508,3995100.0
128,2019-07-26 10:15:00,26.280000686645508,26.3700008392334,26.18000030517578,26.239999771118164,3126800.0
129,2019-07-26 10:20:00,26.25,26.540000915527344,26.239999771118164,26.43000030517578,2377300.0
130,2019-07-26 10:25:00,26.43000030517578,26.6299991607666,26.43000030517578,26.6299991607666,1946500.0
131,2019-07-26 10:30:00,26.6299991607666,26.649999618530273,26.520000457763672,26.56999969482422,1222700.0
132,2019-07-26 10:35:00,26.59000015258789,26.639999389648438,26.540000915527344,26.6299991607666,964300.0
133,2019-07-26 10:40:00,26.6200008392334,26.700000762939453,26.559999465942383,26.59000015258789,1534800.0
134,2019-07-26 10:45:00,26.59000015258789,26.610000610351562,26.549999237060547,26.559999465942383,789900.0
135,2019-07-26 10:50:00,26.559999465942383,26.56999969482422,26.520000457763672,26.540000915527344,353500.0
136,2019-07-26 10:55:00,26.549999237060547,26.56999969482422,26.540000915527344,26.549999237060547,299100.0
137,2019-07-26 11:00:00,26.5,26.540000915527344,26.450000762939453,26.510000228881836,1173700.0
138,2019-07-26 11:05:00,26.510000228881836,26.549999237060547,26.459999084472656,26.469999313354492,302900.0
139,2019-07-26 11:10:00,26.459999084472656,26.510000228881836,26.450000762939453,26.459999084472656,407000.0
140,2019-07-26 11:15:00,26.450000762939453,26.489999771118164,26.43000030517578,26.440000534057617,526100.0
141,2019-07-26 11:20:00,26.440000534057617,26.459999084472656,26.420000076293945,26.43000030517578,453800.0
142,2019-07-26 11:25:00,26.43000030517578,26.440000534057617,26.360000610351562,26.389999389648438,1420600.0
143,2019-07-26 11:30:00,26.389999389648438,26.420000076293945,26.360000610351562,26.3700008392334,878900.0
144,2019-07-26 11:35:00,26.3799991607666,26.3799991607666,26.270000457763672,26.280000686645508,1167900.0
145,2019-07-26 11:40:00,26.280000686645508,26.290000915527344,26.149999618530273,26.15999984741211,3938200.0
146,2019-07-26 11:45:00,26.15999984741211,26.15999984741211,26.100000381469727,26.139999389648438,2407700.0
147,2019-07-26 11:50:00,26.139999389648438,26.209999084472656,26.1299991607666,26.149999618530273,1569700.0
148,2019-07-26 11:55:00,26.149999618530273,26.229999542236328,26.139999389648438,26.219999313354492,708900.0
149,2019-07-26 12:00:00,26.209999084472656,26.25,26.200000762939453,26.219999313354492,624500.0
150,2019-07-26 12:05:00,26.229999542236328,26.270000457763672,26.200000762939453,26.200000762939453,306600.0
151,2019-07-26 12:10:00,26.209999084472656,26.260000228881836,26.190000534057617,26.200000762939453,993600.0
152,2019-07-26 12:15:00,26.190000534057617,26.25,26.18000030517578,26.25,406500.0
153,2019-07-26 12:20:00,26.229999542236328,26.260000228881836,26.219999313354492,26.25,443900.0
154,2019-07-26 12:25:00,26.239999771118164,26.309999465942383,26.239999771118164,26.309999465942383,477800.0
155,2019-07-26 12:30:00,26.309999465942383,26.31999969482422,26.270000457763672,26.290000915527344,1026900.0
156,2019-07-26 12:35:00,26.290000915527344,26.299999237060547,26.270000457763672,26.270000457763672,138200.0
157,2019-07-26 12:40:00,26.270000457763672,26.280000686645508,26.229999542236328,26.260000228881836,946300.0
158,2019-07-26 12:45:00,26.260000228881836,26.270000457763672,26.219999313354492,26.239999771118164,264100.0
159,2019-07-26 12:50:00,26.229999542236328,26.239999771118164,26.18000030517578,26.200000762939453,322700.0
160,2019-07-26 12:55:00,26.200000762939453,26.239999771118164,26.18000030517578,26.219999313354492,405500.0
161,2019-07-26 13:00:00,26.209999084472656,26.219999313354492,26.200000762939453,26.209999084472656,315100.0
162,2019-07-26 13:05:00,26.209999084472656,26.219999313354492,26.200000762939453,26.219999313354492,356000.0
163,2019-07-26 13:10:00,26.209999084472656,26.260000228881836,26.209999084472656,26.260000228881836,340200.0
164,2019-07-26 13:15:00,26.260000228881836,26.260000228881836,26.239999771118164,26.260000228881836,346100.0
165,2019-07-26 13:20:00,26.25,26.270000457763672,26.25,26.270000457763672,370400.0
166,2019-07-26 13:25:00,26.260000228881836,26.350000381469727,26.260000228881836,26.350000381469727,492100.0
167,2019-07-26 13:30:00,26.34000015258789,26.350000381469727,26.309999465942383,26.34000015258789,369300.0
168,2019-07-26 13:35:00,26.34000015258789,26.360000610351562,26.329999923706055,26.34000015258789,300500.0
169,2019-07-26 13:40:00,26.34000015258789,26.350000381469727,26.31999969482422,26.34000015258789,211400.0
170,2019-07-26 13:45:00,26.329999923706055,26.34000015258789,26.270000457763672,26.290000915527344,555600.0
171,2019-07-26 13:50:00,26.290000915527344,26.31999969482422,26.270000457763672,26.309999465942383,286700.0
172,2019-07-26 13:55:00,26.299999237060547,26.329999923706055,26.290000915527344,26.309999465942383,192600.0
173,2019-07-26 14:00:00,26.309999465942383,26.31999969482422,26.290000915527344,26.299999237060547,139300.0
174,2019-07-26 14:05:00,26.290000915527344,26.329999923706055,26.290000915527344,26.309999465942383,218300.0
175,2019-07-26 14:10:00,26.299999237060547,26.3799991607666,26.299999237060547,26.3799991607666,1311500.0
176,2019-07-26 14:15:00,26.3799991607666,26.3799991607666,26.329999923706055,26.34000015258789,362700.0
177,2019-07-26 14:20:00,26.34000015258789,26.360000610351562,26.31999969482422,26.31999969482422,690400.0
178,2019-07-26 14:25:00,26.31999969482422,26.329999923706055,26.270000457763672,26.280000686645508,1017500.0
179,2019-07-26 14:30:00,26.280000686645508,26.280000686645508,26.229999542236328,26.25,1566000.0
180,2019-07-26 14:35:00,26.239999771118164,26.280000686645508,26.239999771118164,26.280000686645508,200000.0
181,2019-07-26 14:40:00,26.270000457763672,26.280000686645508,26.219999313354492,26.229999542236328,515000.0
182,2019-07-26 14:45:00,26.229999542236328,26.239999771118164,26.209999084472656,26.219999313354492,419600.0
183,2019-07-26 14:50:00,26.209999084472656,26.280000686645508,26.209999084472656,26.280000686645508,537000.0
184,2019-07-26 14:55:00,26.280000686645508,26.290000915527344,26.239999771118164,26.25,220100.0
185,2019-07-26 15:00:00,26.25,26.25,26.229999542236328,26.239999771118164,241400.0
186,2019-07-26 15:05:00,26.229999542236328,26.239999771118164,26.18000030517578,26.209999084472656,2297800.0
187,2019-07-26 15:10:00,26.200000762939453,26.209999084472656,26.18000030517578,26.190000534057617,515000.0
188,2019-07-26 15:15:00,26.190000534057617,26.270000457763672,26.18000030517578,26.25,1347000.0
189,2019-07-26 15:20:00,26.25,26.25,26.200000762939453,26.200000762939453,640900.0
190,2019-07-26 15:25:00,26.200000762939453,26.219999313354492,26.15999984741211,26.219999313354492,1516200.0
191,2019-07-26 15:30:00,26.219999313354492,26.239999771118164,26.209999084472656,26.219999313354492,405000.0
192,2019-07-26 15:35:00,26.219999313354492,26.260000228881836,26.209999084472656,26.229999542236328,327400.0
193,2019-07-26 15:40:00,26.219999313354492,26.280000686645508,26.219999313354492,26.270000457763672,601100.0
194,2019-07-26 15:45:00,26.270000457763672,26.280000686645508,26.25,26.270000457763672,885600.0
195,2019-07-26 15:50:00,26.270000457763672,26.309999465942383,26.229999542236328,26.25,674900.0
196,2019-07-26 15:55:00,26.239999771118164,26.260000228881836,26.219999313354492,26.219999313354492,279400.0
197,2019-07-26 16:00:00,26.219999313354492,26.239999771118164,26.200000762939453,26.229999542236328,467900.0
198,2019-07-26 16:05:00,26.219999313354492,26.25,26.209999084472656,26.229999542236328,517400.0
199,2019-07-26 16:10:00,26.219999313354492,26.25,26.200000762939453,26.200000762939453,897900.0
200,2019-07-26 16:15:00,26.200000762939453,26.209999084472656,26.15999984741211,26.18000030517578,521500.0
201,2019-07-26 16:20:00,26.170000076293945,26.200000762939453,26.1299991607666,26.15999984741211,639000.0
202,2019-07-26 16:25:00,26.170000076293945,26.200000762939453,26.1200008392334,26.190000534057617,1039400.0
203,2019-07-26 16:30:00,26.190000534057617,26.190000534057617,26.1299991607666,26.139999389648438,711500.0
204,2019-07-26 16:35:00,26.149999618530273,26.170000076293945,26.139999389648438,26.139999389648438,466300.0
205,2019-07-26 16:40:00,26.149999618530273,26.149999618530273,26.1200008392334,26.1299991607666,872500.0
206,2019-07-26 16:45:00,26.1299991607666,26.15999984741211,26.1200008392334,26.1299991607666,563800.0
207,2019-07-26 16:50:00,26.1299991607666,26.18000030517578,26.110000610351562,26.149999618530273,1339400.0
208,2019-07-26 16:55:00,,,,,
209,2019-07-26 17:05:00,26.14,26.14,26.14,26.14,6454700.0
210,2019-07-29 10:00:00,,,,,
211,2019-07-29 10:05:00,26.219999313354492,26.280000686645508,26.170000076293945,26.18000030517578,226500.0
212,2019-07-29 10:10:00,26.18000030517578,26.200000762939453,26.030000686645508,26.040000915527344,881000.0
213,2019-07-29 10:15:00,26.040000915527344,26.139999389648438,25.959999084472656,26.1299991607666,971400.0
214,2019-07-29 10:20:00,26.1299991607666,26.1299991607666,26.100000381469727,26.1200008392334,278100.0
215,2019-07-29 10:25:00,26.1200008392334,26.149999618530273,26.1200008392334,26.139999389648438,317500.0
216,2019-07-29 10:30:00,26.1299991607666,26.1299991607666,26.010000228881836,26.020000457763672,548700.0
217,2019-07-29 10:35:00,26.020000457763672,26.100000381469727,25.979999542236328,26.059999465942383,527200.0
218,2019-07-29 10:40:00,26.059999465942383,26.06999969482422,26.020000457763672,26.030000686645508,234300.0
219,2019-07-29 10:45:00,26.020000457763672,26.040000915527344,26.0,26.040000915527344,385400.0
220,2019-07-29 10:50:00,26.040000915527344,26.110000610351562,26.030000686645508,26.09000015258789,189000.0
221,2019-07-29 10:55:00,26.09000015258789,26.09000015258789,26.030000686645508,26.040000915527344,303800.0
222,2019-07-29 11:00:00,26.030000686645508,26.049999237060547,26.020000457763672,26.049999237060547,214000.0
223,2019-07-29 11:05:00,26.049999237060547,26.059999465942383,26.020000457763672,26.040000915527344,293600.0
224,2019-07-29 11:10:00,26.040000915527344,26.049999237060547,26.020000457763672,26.030000686645508,188400.0
225,2019-07-29 11:15:00,26.030000686645508,26.040000915527344,25.979999542236328,26.020000457763672,784400.0
226,2019-07-29 11:20:00,26.020000457763672,26.079999923706055,26.010000228881836,26.06999969482422,294300.0
227,2019-07-29 11:25:00,26.06999969482422,26.110000610351562,26.059999465942383,26.100000381469727,362600.0
228,2019-07-29 11:30:00,26.100000381469727,26.110000610351562,26.06999969482422,26.079999923706055,221500.0
229,2019-07-29 11:35:00,26.079999923706055,26.09000015258789,26.040000915527344,26.040000915527344,313800.0
230,2019-07-29 11:40:00,26.040000915527344,26.100000381469727,26.010000228881836,26.09000015258789,640000.0
231,2019-07-29 11:45:00,26.100000381469727,26.110000610351562,26.079999923706055,26.100000381469727,129900.0
232,2019-07-29 11:50:00,26.100000381469727,26.139999389648438,26.09000015258789,26.1200008392334,371800.0
233,2019-07-29 11:55:00,26.110000610351562,26.1299991607666,26.059999465942383,26.059999465942383,521900.0
234,2019-07-29 12:00:00,26.059999465942383,26.09000015258789,26.059999465942383,26.079999923706055,361500.0
235,2019-07-29 12:05:00,26.06999969482422,26.100000381469727,26.06999969482422,26.079999923706055,90000.0
236,2019-07-29 12:10:00,26.079999923706055,26.100000381469727,26.06999969482422,26.079999923706055,115500.0
237,2019-07-29 12:15:00,26.09000015258789,26.110000610351562,26.079999923706055,26.110000610351562,117400.0
238,2019-07-29 12:20:00,26.110000610351562,26.139999389648438,26.100000381469727,26.139999389648438,295000.0
239,2019-07-29 12:25:00,26.139999389648438,26.139999389648438,26.1200008392334,26.1299991607666,210200.0
240,2019-07-29 12:30:00,26.1200008392334,26.1299991607666,26.110000610351562,26.1200008392334,92100.0
241,2019-07-29 12:35:00,26.1299991607666,26.149999618530273,26.1200008392334,26.139999389648438,136900.0
242,2019-07-29 12:40:00,26.139999389648438,26.190000534057617,26.1299991607666,26.18000030517578,210000.0
243,2019-07-29 12:45:00,26.170000076293945,26.200000762939453,26.170000076293945,26.190000534057617,303200.0
244,2019-07-29 12:50:00,26.200000762939453,26.200000762939453,26.170000076293945,26.190000534057617,176200.0
245,2019-07-29 12:55:00,26.18000030517578,26.200000762939453,26.170000076293945,26.18000030517578,150700.0
246,2019-07-29 13:00:00,26.170000076293945,26.18000030517578,26.170000076293945,26.18000030517578,128300.0
247,2019-07-29 13:05:00,26.18000030517578,26.190000534057617,26.15999984741211,26.15999984741211,158000.0
248,2019-07-29 13:10:00,26.15999984741211,26.18000030517578,26.149999618530273,26.15999984741211,159500.0
249,2019-07-29 13:15:00,26.149999618530273,26.170000076293945,26.149999618530273,26.15999984741211,120300.0
250,2019-07-29 13:20:00,26.149999618530273,26.15999984741211,26.139999389648438,26.139999389648438,57700.0
251,2019-07-29 13:25:00,26.139999389648438,26.170000076293945,26.1299991607666,26.170000076293945,338200.0
252,2019-07-29 13:30:00,26.170000076293945,26.190000534057617,26.170000076293945,26.190000534057617,149700.0
253,2019-07-29 13:35:00,26.190000534057617,26.190000534057617,26.15999984741211,26.170000076293945,94400.0
254,2019-07-29 13:40:00,26.170000076293945,26.18000030517578,26.149999618530273,26.15999984741211,110900.0
255,2019-07-29 13:45:00,26.149999618530273,26.15999984741211,26.1299991607666,26.149999618530273,134600.0
256,2019-07-29 13:50:00,26.139999389648438,26.149999618530273,26.110000610351562,26.110000610351562,314900.0
257,2019-07-29 13:55:00,26.1200008392334,26.139999389648438,26.110000610351562,26.1299991607666,105200.0
258,2019-07-29 14:00:00,26.1299991607666,26.149999618530273,26.1200008392334,26.149999618530273,118400.0
259,2019-07-29 14:05:00,26.149999618530273,26.170000076293945,26.149999618530273,26.15999984741211,85700.0
260,2019-07-29 14:10:00,26.15999984741211,26.18000030517578,26.15999984741211,26.15999984741211,116200.0
261,2019-07-29 14:15:00,26.170000076293945,26.18000030517578,26.15999984741211,26.18000030517578,152000.0
262,2019-07-29 14:20:00,26.170000076293945,26.18000030517578,26.15999984741211,26.15999984741211,61400.0
263,2019-07-29 14:25:00,26.15999984741211,26.190000534057617,26.15999984741211,26.190000534057617,228500.0
264,2019-07-29 14:30:00,26.190000534057617,26.200000762939453,26.18000030517578,26.190000534057617,200700.0
265,2019-07-29 14:35:00,26.190000534057617,26.190000534057617,26.18000030517578,26.18000030517578,55300.0
266,2019-07-29 14:40:00,26.18000030517578,26.200000762939453,26.170000076293945,26.200000762939453,116300.0
267,2019-07-29 14:45:00,26.18000030517578,26.190000534057617,26.15999984741211,26.15999984741211,103400.0
268,2019-07-29 14:50:00,26.15999984741211,26.170000076293945,26.15999984741211,26.15999984741211,146300.0
269,2019-07-29 14:55:00,26.15999984741211,26.18000030517578,26.15999984741211,26.18000030517578,134200.0
270,2019-07-29 15:00:00,26.18000030517578,26.229999542236328,26.18000030517578,26.229999542236328,552500.0
271,2019-07-29 15:05:00,26.219999313354492,26.350000381469727,26.209999084472656,26.329999923706055,752500.0
272,2019-07-29 15:10:00,26.34000015258789,26.3700008392334,26.299999237060547,26.299999237060547,437300.0
273,2019-07-29 15:15:00,26.299999237060547,26.350000381469727,26.299999237060547,26.329999923706055,215100.0
274,2019-07-29 15:20:00,26.31999969482422,26.360000610351562,26.309999465942383,26.350000381469727,194600.0
275,2019-07-29 15:25:00,26.34000015258789,26.360000610351562,26.34000015258789,26.350000381469727,82300.0
276,2019-07-29 15:30:00,26.360000610351562,26.3700008392334,26.329999923706055,26.329999923706055,391900.0
277,2019-07-29 15:35:00,26.329999923706055,26.350000381469727,26.31999969482422,26.34000015258789,198200.0
278,2019-07-29 15:40:00,26.34000015258789,26.360000610351562,26.329999923706055,26.350000381469727,180300.0
279,2019-07-29 15:45:00,26.350000381469727,26.3700008392334,26.350000381469727,26.3700008392334,127600.0
280,2019-07-29 15:50:00,26.360000610351562,26.399999618530273,26.360000610351562,26.389999389648438,315500.0
281,2019-07-29 15:55:00,26.389999389648438,26.420000076293945,26.3799991607666,26.40999984741211,225300.0
282,2019-07-29 16:00:00,26.40999984741211,26.440000534057617,26.40999984741211,26.40999984741211,142100.0
283,2019-07-29 16:05:00,26.40999984741211,26.420000076293945,26.350000381469727,26.3700008392334,354200.0
284,2019-07-29 16:10:00,26.3700008392334,26.399999618530273,26.360000610351562,26.3799991607666,176800.0
285,2019-07-29 16:15:00,26.3799991607666,26.399999618530273,26.350000381469727,26.3700008392334,191700.0
286,2019-07-29 16:20:00,26.3700008392334,26.3799991607666,26.350000381469727,26.350000381469727,132000.0
287,2019-07-29 16:25:00,26.360000610351562,26.360000610351562,26.170000076293945,26.309999465942383,318000.0
288,2019-07-29 16:30:00,26.31999969482422,26.350000381469727,26.309999465942383,26.31999969482422,191400.0
289,2019-07-29 16:35:00,26.31999969482422,26.389999389648438,26.31999969482422,26.350000381469727,296700.0
290,2019-07-29 16:40:00,26.350000381469727,26.389999389648438,26.34000015258789,26.360000610351562,2366200.0
291,2019-07-29 16:45:00,26.360000610351562,26.399999618530273,26.360000610351562,26.389999389648438,372000.0
292,2019-07-29 16:50:00,26.389999389648438,26.420000076293945,26.3799991607666,26.389999389648438,254400.0
293,2019-07-29 16:55:00,,,,,
294,2019-07-29 17:05:00,26.38,26.38,26.38,26.38,2320000.0
295,2019-07-30 10:00:00,26.350000381469727,26.350000381469727,26.309999465942383,26.309999465942383,0.0
296,2019-07-30 10:05:00,26.309999465942383,26.31999969482422,26.18000030517578,26.25,485900.0
297,2019-07-30 10:10:00,26.25,26.31999969482422,26.229999542236328,26.290000915527344,240400.0
298,2019-07-30 10:15:00,26.290000915527344,26.299999237060547,26.270000457763672,26.290000915527344,159500.0
299,2019-07-30 10:20:00,26.290000915527344,26.40999984741211,26.270000457763672,26.399999618530273,437700.0
300,2019-07-30 10:25:00,26.399999618530273,26.489999771118164,26.399999618530273,26.469999313354492,498400.0
301,2019-07-30 10:30:00,26.459999084472656,26.459999084472656,26.350000381469727,26.420000076293945,583000.0
302,2019-07-30 10:35:00,26.40999984741211,26.469999313354492,26.3799991607666,26.3799991607666,313200.0
303,2019-07-30 10:40:00,26.3700008392334,26.440000534057617,26.360000610351562,26.420000076293945,334500.0
304,2019-07-30 10:45:00,26.43000030517578,26.43000030517578,26.350000381469727,26.40999984741211,314900.0
305,2019-07-30 10:50:00,26.399999618530273,26.459999084472656,26.3799991607666,26.459999084472656,336400.0
306,2019-07-30 10:55:00,26.459999084472656,26.479999542236328,26.399999618530273,26.40999984741211,525000.0
307,2019-07-30 11:00:00,26.40999984741211,26.440000534057617,26.309999465942383,26.360000610351562,2718700.0
308,2019-07-30 11:05:00,26.350000381469727,26.40999984741211,26.31999969482422,26.31999969482422,598700.0
309,2019-07-30 11:10:00,26.329999923706055,26.350000381469727,26.229999542236328,26.290000915527344,553100.0
310,2019-07-30 11:15:00,26.299999237060547,26.360000610351562,26.280000686645508,26.329999923706055,455600.0
311,2019-07-30 11:20:00,26.34000015258789,26.34000015258789,26.299999237060547,26.31999969482422,364600.0
312,2019-07-30 11:25:00,26.31999969482422,26.350000381469727,26.299999237060547,26.329999923706055,388400.0
313,2019-07-30 11:30:00,26.329999923706055,26.3700008392334,26.31999969482422,26.360000610351562,339500.0
314,2019-07-30 11:35:00,26.3700008392334,26.3700008392334,26.34000015258789,26.34000015258789,402400.0
315,2019-07-30 11:40:00,26.34000015258789,26.360000610351562,26.309999465942383,26.31999969482422,2382600.0
316,2019-07-30 11:45:00,26.309999465942383,26.31999969482422,26.239999771118164,26.280000686645508,1249100.0
317,2019-07-30 11:50:00,26.270000457763672,26.299999237060547,26.260000228881836,26.270000457763672,384500.0
318,2019-07-30 11:55:00,26.260000228881836,26.280000686645508,26.239999771118164,26.270000457763672,398700.0
319,2019-07-30 12:00:00,26.280000686645508,26.360000610351562,26.25,26.34000015258789,929200.0
320,2019-07-30 12:05:00,26.329999923706055,26.34000015258789,26.309999465942383,26.329999923706055,188600.0
321,2019-07-30 12:10:00,26.31999969482422,26.350000381469727,26.309999465942383,26.350000381469727,285200.0
322,2019-07-30 12:15:00,26.34000015258789,26.350000381469727,26.309999465942383,26.329999923706055,308200.0
323,2019-07-30 12:20:00,26.309999465942383,26.350000381469727,26.309999465942383,26.34000015258789,210800.0
324,2019-07-30 12:25:00,26.34000015258789,26.360000610351562,26.31999969482422,26.360000610351562,150200.0
325,2019-07-30 12:30:00,26.350000381469727,26.360000610351562,26.31999969482422,26.34000015258789,210400.0
326,2019-07-30 12:35:00,26.350000381469727,26.360000610351562,26.309999465942383,26.329999923706055,87300.0
327,2019-07-30 12:40:00,26.31999969482422,26.34000015258789,26.299999237060547,26.309999465942383,283400.0
328,2019-07-30 12:45:00,26.309999465942383,26.329999923706055,26.309999465942383,26.309999465942383,97100.0
329,2019-07-30 12:50:00,26.31999969482422,26.329999923706055,26.299999237060547,26.31999969482422,113500.0
330,2019-07-30 12:55:00,26.329999923706055,26.329999923706055,26.299999237060547,26.309999465942383,115400.0
331,2019-07-30 13:00:00,26.309999465942383,26.329999923706055,26.290000915527344,26.31999969482422,108000.0
332,2019-07-30 13:05:00,26.31999969482422,26.329999923706055,26.290000915527344,26.309999465942383,78700.0
333,2019-07-30 13:10:00,26.290000915527344,26.309999465942383,26.280000686645508,26.309999465942383,232600.0
334,2019-07-30 13:15:00,26.299999237060547,26.329999923706055,26.290000915527344,26.31999969482422,66000.0
335,2019-07-30 13:20:00,26.309999465942383,26.329999923706055,26.299999237060547,26.31999969482422,103400.0
336,2019-07-30 13:25:00,26.329999923706055,26.329999923706055,26.309999465942383,26.31999969482422,66600.0
337,2019-07-30 13:30:00,26.309999465942383,26.31999969482422,26.280000686645508,26.309999465942383,135100.0
338,2019-07-30 13:35:00,26.290000915527344,26.31999969482422,26.290000915527344,26.299999237060547,133900.0
339,2019-07-30 13:40:00,26.299999237060547,26.31999969482422,26.290000915527344,26.309999465942383,165500.0
340,2019-07-30 13:45:00,26.309999465942383,26.329999923706055,26.290000915527344,26.31999969482422,114700.0
341,2019-07-30 13:50:00,26.299999237060547,26.309999465942383,26.270000457763672,26.270000457763672,247100.0
342,2019-07-30 13:55:00,26.270000457763672,26.299999237060547,26.260000228881836,26.270000457763672,374700.0
343,2019-07-30 14:00:00,26.270000457763672,26.280000686645508,26.239999771118164,26.25,1260300.0
344,2019-07-30 14:05:00,26.25,26.270000457763672,26.239999771118164,26.260000228881836,94200.0
345,2019-07-30 14:10:00,26.260000228881836,26.290000915527344,26.25,26.290000915527344,395600.0
346,2019-07-30 14:15:00,26.290000915527344,26.290000915527344,26.270000457763672,26.280000686645508,146200.0
347,2019-07-30 14:20:00,26.290000915527344,26.290000915527344,26.260000228881836,26.270000457763672,198500.0
348,2019-07-30 14:25:00,26.270000457763672,26.290000915527344,26.25,26.270000457763672,142400.0
349,2019-07-30 14:30:00,26.270000457763672,26.290000915527344,26.229999542236328,26.239999771118164,241600.0
350,2019-07-30 14:35:00,26.239999771118164,26.25,26.219999313354492,26.239999771118164,298600.0
351,2019-07-30 14:40:00,26.229999542236328,26.260000228881836,26.219999313354492,26.239999771118164,445200.0
352,2019-07-30 14:45:00,26.229999542236328,26.260000228881836,26.209999084472656,26.229999542236328,415400.0
353,2019-07-30 14:50:00,26.229999542236328,26.280000686645508,26.229999542236328,26.280000686645508,317200.0
354,2019-07-30 14:55:00,26.260000228881836,26.270000457763672,26.25,26.260000228881836,372200.0
355,2019-07-30 15:00:00,26.260000228881836,26.31999969482422,26.25,26.309999465942383,221300.0
356,2019-07-30 15:05:00,26.299999237060547,26.31999969482422,26.280000686645508,26.299999237060547,376800.0
357,2019-07-30 15:10:00,26.299999237060547,26.309999465942383,26.270000457763672,26.270000457763672,238700.0
358,2019-07-30 15:15:00,26.270000457763672,26.309999465942383,26.260000228881836,26.309999465942383,421600.0
359,2019-07-30 15:20:00,26.34000015258789,26.360000610351562,26.31999969482422,26.350000381469727,851200.0
360,2019-07-30 15:25:00,26.34000015258789,26.40999984741211,26.31999969482422,26.350000381469727,1030100.0
361,2019-07-30 15:30:00,26.360000610351562,26.360000610351562,26.309999465942383,26.34000015258789,425500.0
362,2019-07-30 15:35:00,26.329999923706055,26.34000015258789,26.290000915527344,26.309999465942383,208500.0
363,2019-07-30 15:40:00,26.309999465942383,26.329999923706055,26.299999237060547,26.31999969482422,88900.0
364,2019-07-30 15:45:00,26.31999969482422,26.31999969482422,26.299999237060547,26.299999237060547,179600.0
365,2019-07-30 15:50:00,26.299999237060547,26.31999969482422,26.299999237060547,26.299999237060547,234800.0
366,2019-07-30 15:55:00,26.309999465942383,26.360000610351562,26.299999237060547,26.34000015258789,234300.0
367,2019-07-30 16:00:00,26.34000015258789,26.40999984741211,26.34000015258789,26.360000610351562,206600.0
368,2019-07-30 16:05:00,26.350000381469727,26.360000610351562,26.309999465942383,26.31999969482422,165900.0
369,2019-07-30 16:10:00,26.309999465942383,26.350000381469727,26.290000915527344,26.34000015258789,293200.0
370,2019-07-30 16:15:00,26.329999923706055,26.34000015258789,26.299999237060547,26.31999969482422,88200.0
371,2019-07-30 16:20:00,26.309999465942383,26.329999923706055,26.299999237060547,26.329999923706055,434200.0
372,2019-07-30 16:25:00,26.309999465942383,26.329999923706055,26.280000686645508,26.290000915527344,738800.0
373,2019-07-30 16:30:00,26.280000686645508,26.290000915527344,26.239999771118164,26.25,1630000.0
374,2019-07-30 16:35:00,26.25,26.260000228881836,26.209999084472656,26.229999542236328,756800.0
375,2019-07-30 16:40:00,26.229999542236328,26.239999771118164,26.200000762939453,26.219999313354492,428600.0
376,2019-07-30 16:45:00,26.229999542236328,26.229999542236328,26.200000762939453,26.219999313354492,337700.0
377,2019-07-30 16:50:00,26.219999313354492,26.270000457763672,26.200000762939453,26.229999542236328,433800.0
378,2019-07-30 16:55:00,,,,,
379,2019-07-30 17:05:00,26.24,26.24,26.24,26.24,4042600.0
380,2019-07-31 10:00:00,,,,,
381,2019-07-31 10:05:00,,,,,
382,2019-07-31 10:10:00,26.389999389648438,26.43000030517578,26.329999923706055,26.40999984741211,311000.0
383,2019-07-31 10:15:00,26.420000076293945,26.43000030517578,26.34000015258789,26.389999389648438,258800.0
384,2019-07-31 10:20:00,26.3799991607666,26.469999313354492,26.3799991607666,26.469999313354492,372000.0
385,2019-07-31 10:25:00,26.469999313354492,26.5,26.440000534057617,26.450000762939453,235000.0
386,2019-07-31 10:30:00,26.450000762939453,26.450000762939453,26.34000015258789,26.3799991607666,880200.0
387,2019-07-31 10:35:00,26.3799991607666,26.440000534057617,26.270000457763672,26.290000915527344,709600.0
388,2019-07-31 10:40:00,26.290000915527344,26.3700008392334,26.260000228881836,26.329999923706055,448700.0
389,2019-07-31 10:45:00,26.329999923706055,26.399999618530273,26.299999237060547,26.309999465942383,300300.0
390,2019-07-31 10:50:00,26.309999465942383,26.360000610351562,26.219999313354492,26.25,780300.0
391,2019-07-31 10:55:00,26.25,26.290000915527344,26.219999313354492,26.229999542236328,296900.0
392,2019-07-31 11:00:00,26.229999542236328,26.25,26.200000762939453,26.25,281000.0
393,2019-07-31 11:05:00,26.25,26.280000686645508,26.18000030517578,26.239999771118164,528700.0
394,2019-07-31 11:10:00,26.239999771118164,26.270000457763672,26.229999542236328,26.260000228881836,143500.0
395,2019-07-31 11:15:00,26.25,26.280000686645508,26.239999771118164,26.25,105100.0
396,2019-07-31 11:20:00,26.25,26.280000686645508,26.190000534057617,26.200000762939453,350300.0
397,2019-07-31 11:25:00,26.200000762939453,26.260000228881836,26.200000762939453,26.229999542236328,200600.0
398,2019-07-31 11:30:00,26.25,26.34000015258789,26.229999542236328,26.329999923706055,835900.0
399,2019-07-31 11:35:00,26.31999969482422,26.360000610351562,26.309999465942383,26.309999465942383,449700.0
400,2019-07-31 11:40:00,26.309999465942383,26.3799991607666,26.309999465942383,26.3700008392334,442500.0
401,2019-07-31 11:45:00,26.360000610351562,26.3799991607666,26.34000015258789,26.350000381469727,249500.0
402,2019-07-31 11:50:00,26.350000381469727,26.3799991607666,26.34000015258789,26.350000381469727,187500.0
403,2019-07-31 11:55:00,26.350000381469727,26.3799991607666,26.329999923706055,26.329999923706055,420300.0
404,2019-07-31 12:00:00,26.329999923706055,26.3700008392334,26.31999969482422,26.34000015258789,363500.0
405,2019-07-31 12:05:00,26.329999923706055,26.3799991607666,26.299999237060547,26.360000610351562,261100.0
406,2019-07-31 12:10:00,26.360000610351562,26.389999389648438,26.350000381469727,26.350000381469727,186900.0
407,2019-07-31 12:15:00,26.350000381469727,26.389999389648438,26.350000381469727,26.3799991607666,152500.0
408,2019-07-31 12:20:00,26.3799991607666,26.389999389648438,26.350000381469727,26.360000610351562,173600.0
409,2019-07-31 12:25:00,26.350000381469727,26.360000610351562,26.31999969482422,26.31999969482422,113400.0
410,2019-07-31 12:30:00,26.329999923706055,26.350000381469727,26.31999969482422,26.31999969482422,146500.0
411,2019-07-31 12:35:00,26.329999923706055,26.360000610351562,26.31999969482422,26.34000015258789,88900.0
412,2019-07-31 12:40:00,26.350000381469727,26.3700008392334,26.34000015258789,26.360000610351562,101300.0
413,2019-07-31 12:45:00,26.350000381469727,26.3700008392334,26.34000015258789,26.360000610351562,91700.0
414,2019-07-31 12:50:00,26.3700008392334,26.3700008392334,26.34000015258789,26.34000015258789,92200.0
415,2019-07-31 12:55:00,26.34000015258789,26.350000381469727,26.309999465942383,26.329999923706055,274400.0
416,2019-07-31 13:00:00,26.34000015258789,26.34000015258789,26.280000686645508,26.309999465942383,319100.0
417,2019-07-31 13:05:00,26.31999969482422,26.350000381469727,26.309999465942383,26.329999923706055,120700.0
418,2019-07-31 13:10:00,26.329999923706055,26.350000381469727,26.329999923706055,26.329999923706055,195600.0
419,2019-07-31 13:15:00,26.329999923706055,26.34000015258789,26.299999237060547,26.31999969482422,230500.0
420,2019-07-31 13:20:00,26.31999969482422,26.329999923706055,26.290000915527344,26.329999923706055,231700.0
421,2019-07-31 13:25:00,26.329999923706055,26.34000015258789,26.31999969482422,26.31999969482422,181300.0
422,2019-07-31 13:30:00,26.329999923706055,26.350000381469727,26.31999969482422,26.34000015258789,173000.0
423,2019-07-31 13:35:00,26.34000015258789,26.350000381469727,26.31999969482422,26.34000015258789,106500.0
424,2019-07-31 13:40:00,26.34000015258789,26.34000015258789,26.31999969482422,26.31999969482422,112700.0
425,2019-07-31 13:45:00,26.329999923706055,26.34000015258789,26.31999969482422,26.31999969482422,160400.0
426,2019-07-31 13:50:00,26.31999969482422,26.350000381469727,26.31999969482422,26.34000015258789,122700.0
427,2019-07-31 13:55:00,26.350000381469727,26.350000381469727,26.329999923706055,26.34000015258789,108100.0
428,2019-07-31 14:00:00,26.34000015258789,26.3700008392334,26.34000015258789,26.34000015258789,124500.0
429,2019-07-31 14:05:00,26.350000381469727,26.350000381469727,26.309999465942383,26.34000015258789,123200.0
430,2019-07-31 14:10:00,26.329999923706055,26.350000381469727,26.31999969482422,26.34000015258789,68300.0
431,2019-07-31 14:15:00,26.329999923706055,26.3700008392334,26.329999923706055,26.350000381469727,186900.0
432,2019-07-31 14:20:00,26.360000610351562,26.360000610351562,26.329999923706055,26.360000610351562,295400.0
433,2019-07-31 14:25:00,26.360000610351562,26.389999389648438,26.350000381469727,26.360000610351562,266300.0
434,2019-07-31 14:30:00,26.3700008392334,26.3799991607666,26.350000381469727,26.3700008392334,159300.0
435,2019-07-31 14:35:00,26.360000610351562,26.3700008392334,26.329999923706055,26.34000015258789,234000.0
436,2019-07-31 14:40:00,26.34000015258789,26.34000015258789,26.309999465942383,26.31999969482422,159300.0
437,2019-07-31 14:45:00,26.309999465942383,26.350000381469727,26.299999237060547,26.34000015258789,351400.0
438,2019-07-31 14:50:00,26.34000015258789,26.360000610351562,26.290000915527344,26.290000915527344,315900.0
439,2019-07-31 14:55:00,26.290000915527344,26.34000015258789,26.290000915527344,26.34000015258789,145200.0
440,2019-07-31 15:00:00,26.34000015258789,26.360000610351562,26.219999313354492,26.25,2374600.0
441,2019-07-31 15:05:00,26.260000228881836,26.350000381469727,26.239999771118164,26.309999465942383,361500.0
442,2019-07-31 15:10:00,26.299999237060547,26.360000610351562,26.280000686645508,26.329999923706055,375100.0
443,2019-07-31 15:15:00,26.329999923706055,26.360000610351562,26.309999465942383,26.350000381469727,201200.0
444,2019-07-31 15:20:00,26.350000381469727,26.360000610351562,26.309999465942383,26.34000015258789,274100.0
445,2019-07-31 15:25:00,26.329999923706055,26.3700008392334,26.329999923706055,26.360000610351562,347900.0
446,2019-07-31 15:30:00,26.360000610351562,26.43000030517578,26.360000610351562,26.389999389648438,714400.0
447,2019-07-31 15:35:00,26.399999618530273,26.420000076293945,26.309999465942383,26.31999969482422,660000.0
448,2019-07-31 15:40:00,26.309999465942383,26.309999465942383,26.239999771118164,26.25,923000.0
449,2019-07-31 15:45:00,26.25,26.260000228881836,26.110000610351562,26.18000030517578,1328700.0
450,2019-07-31 15:50:00,26.170000076293945,26.170000076293945,26.020000457763672,26.079999923706055,1157200.0
451,2019-07-31 15:55:00,26.079999923706055,26.110000610351562,26.040000915527344,26.100000381469727,606700.0
452,2019-07-31 16:00:00,26.100000381469727,26.190000534057617,26.040000915527344,26.170000076293945,1030400.0
453,2019-07-31 16:05:00,26.170000076293945,26.239999771118164,26.170000076293945,26.190000534057617,399100.0
454,2019-07-31 16:10:00,26.190000534057617,26.200000762939453,26.110000610351562,26.18000030517578,301200.0
455,2019-07-31 16:15:00,26.200000762939453,26.219999313354492,26.139999389648438,26.190000534057617,337600.0
456,2019-07-31 16:20:00,26.190000534057617,26.209999084472656,26.139999389648438,26.170000076293945,490600.0
457,2019-07-31 16:25:00,26.170000076293945,26.200000762939453,26.139999389648438,26.190000534057617,2998700.0
458,2019-07-31 16:30:00,26.190000534057617,26.260000228881836,26.15999984741211,26.200000762939453,666300.0
459,2019-07-31 16:35:00,26.190000534057617,26.209999084472656,26.170000076293945,26.190000534057617,260500.0
460,2019-07-31 16:40:00,26.190000534057617,26.190000534057617,26.1299991607666,26.190000534057617,2420400.0
461,2019-07-31 16:45:00,26.18000030517578,26.270000457763672,26.170000076293945,26.25,701000.0
462,2019-07-31 16:50:00,26.239999771118164,26.270000457763672,26.219999313354492,26.260000228881836,397700.0
463,2019-07-31 16:55:00,,,,,
464,2019-07-31 17:05:00,26.08,26.08,26.08,26.08,4722400.0
465,2019-08-01 10:00:00,,,,,
466,2019-08-01 10:05:00,26.299999237060547,26.34000015258789,26.209999084472656,26.229999542236328,400800.0
467,2019-08-01 10:10:00,26.219999313354492,26.25,26.100000381469727,26.149999618530273,823900.0
468,2019-08-01 10:15:00,26.18000030517578,26.200000762939453,26.139999389648438,26.139999389648438,353900.0
469,2019-08-01 10:20:00,26.149999618530273,26.190000534057617,26.110000610351562,26.190000534057617,243000.0
470,2019-08-01 10:25:00,26.18000030517578,26.239999771118164,26.18000030517578,26.229999542236328,247700.0
471,2019-08-01 10:30:00,26.219999313354492,26.229999542236328,26.100000381469727,26.1200008392334,1853900.0
472,2019-08-01 10:35:00,26.110000610351562,26.18000030517578,26.100000381469727,26.170000076293945,548200.0
473,2019-08-01 10:40:00,26.18000030517578,26.18000030517578,26.110000610351562,26.110000610351562,479400.0
474,2019-08-01 10:45:00,26.1200008392334,26.1299991607666,26.09000015258789,26.100000381469727,620400.0
475,2019-08-01 10:50:00,26.100000381469727,26.1200008392334,25.979999542236328,26.010000228881836,1059600.0
476,2019-08-01 10:55:00,26.010000228881836,26.1200008392334,26.010000228881836,26.09000015258789,753200.0
477,2019-08-01 11:00:00,26.09000015258789,26.15999984741211,26.079999923706055,26.100000381469727,1263300.0
478,2019-08-01 11:05:00,26.1200008392334,26.190000534057617,26.100000381469727,26.15999984741211,657900.0
479,2019-08-01 11:10:00,26.170000076293945,26.190000534057617,26.1299991607666,26.170000076293945,1010200.0
480,2019-08-01 11:15:00,26.18000030517578,26.25,26.15999984741211,26.239999771118164,1371400.0
481,2019-08-01 11:20:00,26.239999771118164,26.25,26.209999084472656,26.229999542236328,343400.0
482,2019-08-01 11:25:00,26.239999771118164,26.25,26.219999313354492,26.229999542236328,701000.0
483,2019-08-01 11:30:00,26.25,26.309999465942383,26.229999542236328,26.290000915527344,1564100.0
484,2019-08-01 11:35:00,26.290000915527344,26.309999465942383,26.25,26.25,528600.0
485,2019-08-01 11:40:00,26.260000228881836,26.260000228881836,26.200000762939453,26.219999313354492,1009600.0
486,2019-08-01 11:45:00,26.229999542236328,26.229999542236328,26.15999984741211,26.18000030517578,1138500.0
487,2019-08-01 11:50:00,26.18000030517578,26.209999084472656,26.170000076293945,26.18000030517578,887900.0
488,2019-08-01 11:55:00,26.18000030517578,26.219999313354492,26.170000076293945,26.190000534057617,564100.0
489,2019-08-01 12:00:00,26.190000534057617,26.229999542236328,26.18000030517578,26.200000762939453,2604800.0
490,2019-08-01 12:05:00,26.200000762939453,26.219999313354492,26.190000534057617,26.209999084472656,427100.0
491,2019-08-01 12:10:00,26.209999084472656,26.260000228881836,26.209999084472656,26.239999771118164,527800.0
492,2019-08-01 12:15:00,26.25,26.270000457763672,26.239999771118164,26.239999771118164,151700.0
493,2019-08-01 12:20:00,26.239999771118164,26.260000228881836,26.239999771118164,26.260000228881836,181200.0
494,2019-08-01 12:25:00,26.260000228881836,26.270000457763672,26.239999771118164,26.260000228881836,372200.0
495,2019-08-01 12:30:00,26.260000228881836,26.260000228881836,26.229999542236328,26.25,361700.0
496,2019-08-01 12:35:00,26.260000228881836,26.260000228881836,26.239999771118164,26.25,288300.0
497,2019-08-01 12:40:00,26.260000228881836,26.270000457763672,26.229999542236328,26.239999771118164,544600.0
498,2019-08-01 12:45:00,26.239999771118164,26.260000228881836,26.229999542236328,26.260000228881836,242800.0
499,2019-08-01 12:50:00,26.260000228881836,26.260000228881836,26.219999313354492,26.219999313354492,235500.0
500,2019-08-01 12:55:00,26.219999313354492,26.239999771118164,26.200000762939453,26.209999084472656,729300.0
501,2019-08-01 13:00:00,26.219999313354492,26.229999542236328,26.200000762939453,26.209999084472656,184900.0
502,2019-08-01 13:05:00,26.219999313354492,26.239999771118164,26.209999084472656,26.229999542236328,179600.0
503,2019-08-01 13:10:00,26.239999771118164,26.260000228881836,26.229999542236328,26.25,1054900.0
504,2019-08-01 13:15:00,26.25,26.260000228881836,26.25,26.25,236800.0
505,2019-08-01 13:20:00,26.25,26.299999237060547,26.25,26.290000915527344,739500.0
506,2019-08-01 13:25:00,26.299999237060547,26.31999969482422,26.280000686645508,26.309999465942383,355400.0
507,2019-08-01 13:30:00,26.309999465942383,26.329999923706055,26.299999237060547,26.31999969482422,326600.0
508,2019-08-01 13:35:00,26.31999969482422,26.43000030517578,26.31999969482422,26.389999389648438,1064400.0
509,2019-08-01 13:40:00,26.3799991607666,26.40999984741211,26.329999923706055,26.399999618530273,798900.0
510,2019-08-01 13:45:00,26.40999984741211,26.469999313354492,26.389999389648438,26.459999084472656,538300.0
511,2019-08-01 13:50:00,26.459999084472656,26.489999771118164,26.440000534057617,26.469999313354492,440900.0
512,2019-08-01 13:55:00,26.469999313354492,26.5,26.459999084472656,26.479999542236328,460200.0
513,2019-08-01 14:00:00,26.489999771118164,26.489999771118164,26.450000762939453,26.479999542236328,288700.0
514,2019-08-01 14:05:00,26.479999542236328,26.489999771118164,26.440000534057617,26.459999084472656,341300.0
515,2019-08-01 14:10:00,26.450000762939453,26.469999313354492,26.43000030517578,26.450000762939453,250800.0
516,2019-08-01 14:15:00,26.450000762939453,26.489999771118164,26.43000030517578,26.479999542236328,262600.0
517,2019-08-01 14:20:00,26.479999542236328,26.559999465942383,26.469999313354492,26.540000915527344,652600.0
518,2019-08-01 14:25:00,26.540000915527344,26.559999465942383,26.3700008392334,26.3700008392334,1566200.0
519,2019-08-01 14:30:00,26.3700008392334,26.559999465942383,26.0,26.09000015258789,6286400.0
520,2019-08-01 14:35:00,26.079999923706055,26.110000610351562,25.950000762939453,26.059999465942383,3198500.0
521,2019-08-01 14:40:00,26.059999465942383,26.06999969482422,25.649999618530273,25.709999084472656,3867000.0
522,2019-08-01 14:45:00,25.729999542236328,25.799999237060547,25.639999389648438,25.790000915527344,3073300.0
523,2019-08-01 14:50:00,25.790000915527344,25.8700008392334,25.729999542236328,25.75,1571600.0
524,2019-08-01 14:55:00,25.75,25.799999237060547,25.729999542236328,25.770000457763672,2782500.0
525,2019-08-01 15:00:00,25.780000686645508,25.780000686645508,25.549999237060547,25.559999465942383,1268400.0
526,2019-08-01 15:05:00,25.559999465942383,25.600000381469727,25.219999313354492,25.360000610351562,3721200.0
527,2019-08-01 15:10:00,25.3700008392334,25.530000686645508,25.270000457763672,25.510000228881836,2010500.0
528,2019-08-01 15:15:00,25.530000686645508,25.579999923706055,25.43000030517578,25.459999084472656,1973100.0
529,2019-08-01 15:20:00,25.459999084472656,25.479999542236328,25.31999969482422,25.3700008392334,976900.0
530,2019-08-01 15:25:00,25.360000610351562,25.399999618530273,25.15999984741211,25.299999237060547,1723800.0
531,2019-08-01 15:30:00,25.299999237060547,25.389999389648438,25.290000915527344,25.389999389648438,672100.0
532,2019-08-01 15:35:00,25.389999389648438,25.43000030517578,25.360000610351562,25.399999618530273,2734800.0
533,2019-08-01 15:40:00,25.399999618530273,25.469999313354492,25.389999389648438,25.420000076293945,938700.0
534,2019-08-01 15:45:00,25.40999984741211,25.540000915527344,25.399999618530273,25.540000915527344,872900.0
535,2019-08-01 15:50:00,25.540000915527344,25.700000762939453,25.520000457763672,25.670000076293945,1522800.0
536,2019-08-01 15:55:00,25.65999984741211,25.700000762939453,25.6299991607666,25.639999389648438,1280400.0
537,2019-08-01 16:00:00,25.639999389648438,25.670000076293945,25.56999969482422,25.65999984741211,959900.0
538,2019-08-01 16:05:00,25.65999984741211,25.65999984741211,25.530000686645508,25.549999237060547,858500.0
539,2019-08-01 16:10:00,25.549999237060547,25.670000076293945,25.540000915527344,25.639999389648438,629000.0
540,2019-08-01 16:15:00,25.639999389648438,25.690000534057617,25.6200008392334,25.649999618530273,671300.0
541,2019-08-01 16:20:00,25.649999618530273,25.700000762939453,25.610000610351562,25.6200008392334,945700.0
542,2019-08-01 16:25:00,25.6299991607666,25.639999389648438,25.540000915527344,25.579999923706055,1125900.0
543,2019-08-01 16:30:00,25.559999465942383,25.59000015258789,25.520000457763672,25.549999237060547,804500.0
544,2019-08-01 16:35:00,25.549999237060547,25.65999984741211,25.520000457763672,25.649999618530273,778900.0
545,2019-08-01 16:40:00,25.65999984741211,25.690000534057617,25.600000381469727,25.6200008392334,1136000.0
546,2019-08-01 16:45:00,25.6200008392334,25.639999389648438,25.559999465942383,25.579999923706055,1386400.0
547,2019-08-01 16:50:00,25.579999923706055,25.610000610351562,25.5,25.600000381469727,906600.0
548,2019-08-01 16:55:00,,,,,
549,2019-08-01 17:05:00,25.6,25.6,25.6,25.6,5218500.0
550,2019-08-02 10:00:00,,,,,
551,2019-08-02 10:05:00,26.3700008392334,26.3799991607666,26.290000915527344,26.299999237060547,847000.0
552,2019-08-02 10:10:00,26.299999237060547,26.40999984741211,26.280000686645508,26.350000381469727,2647500.0
553,2019-08-02 10:15:00,26.389999389648438,26.860000610351562,26.389999389648438,26.690000534057617,6128000.0
554,2019-08-02 10:20:00,26.68000030517578,26.81999969482422,26.670000076293945,26.709999084472656,3798800.0
555,2019-08-02 10:25:00,26.690000534057617,26.790000915527344,26.690000534057617,26.780000686645508,2517100.0
556,2019-08-02 10:30:00,26.760000228881836,26.790000915527344,26.709999084472656,26.760000228881836,2978900.0
557,2019-08-02 10:35:00,26.760000228881836,26.770000457763672,26.690000534057617,26.760000228881836,1561900.0
558,2019-08-02 10:40:00,26.770000457763672,26.889999389648438,26.760000228881836,26.84000015258789,2249200.0
559,2019-08-02 10:45:00,26.850000381469727,26.850000381469727,26.739999771118164,26.770000457763672,1117200.0
560,2019-08-02 10:50:00,26.760000228881836,26.84000015258789,26.729999542236328,26.81999969482422,1660200.0
561,2019-08-02 10:55:00,26.829999923706055,26.829999923706055,26.770000457763672,26.809999465942383,1290400.0
562,2019-08-02 11:00:00,26.799999237060547,26.81999969482422,26.75,26.799999237060547,954600.0
563,2019-08-02 11:05:00,26.790000915527344,26.81999969482422,26.739999771118164,26.780000686645508,1558000.0
564,2019-08-02 11:10:00,26.790000915527344,26.790000915527344,26.549999237060547,26.56999969482422,2260500.0
565,2019-08-02 11:15:00,26.56999969482422,26.600000381469727,26.489999771118164,26.489999771118164,1702100.0
566,2019-08-02 11:20:00,26.5,26.5,26.450000762939453,26.450000762939453,1061600.0
567,2019-08-02 11:25:00,26.450000762939453,26.479999542236328,26.3799991607666,26.440000534057617,1686100.0
568,2019-08-02 11:30:00,26.450000762939453,26.459999084472656,26.350000381469727,26.3700008392334,665200.0
569,2019-08-02 11:35:00,26.3700008392334,26.510000228881836,26.360000610351562,26.469999313354492,596200.0
570,2019-08-02 11:40:00,26.469999313354492,26.489999771118164,26.420000076293945,26.469999313354492,382600.0
571,2019-08-02 11:45:00,26.469999313354492,26.469999313354492,26.360000610351562,26.40999984741211,596200.0
572,2019-08-02 11:50:00,26.420000076293945,26.440000534057617,26.3700008392334,26.40999984741211,516100.0
573,2019-08-02 11:55:00,26.40999984741211,26.469999313354492,26.3799991607666,26.389999389648438,488100.0
574,2019-08-02 12:00:00,26.399999618530273,26.40999984741211,26.350000381469727,26.3799991607666,555600.0
575,2019-08-02 12:05:00,26.389999389648438,26.440000534057617,26.3799991607666,26.43000030517578,164400.0
576,2019-08-02 12:10:00,26.43000030517578,26.530000686645508,26.43000030517578,26.5,1069300.0
577,2019-08-02 12:15:00,26.5,26.510000228881836,26.469999313354492,26.479999542236328,306800.0
578,2019-08-02 12:20:00,26.479999542236328,26.510000228881836,26.40999984741211,26.440000534057617,516700.0
579,2019-08-02 12:25:00,26.440000534057617,26.450000762939453,26.350000381469727,26.3700008392334,658900.0
580,2019-08-02 12:30:00,26.3799991607666,26.43000030517578,26.3799991607666,26.399999618530273,226800.0
581,2019-08-02 12:35:00,26.40999984741211,26.440000534057617,26.3799991607666,26.43000030517578,289700.0
582,2019-08-02 12:40:00,26.43000030517578,26.450000762939453,26.389999389648438,26.440000534057617,171900.0
583,2019-08-02 12:45:00,26.450000762939453,26.520000457763672,26.43000030517578,26.520000457763672,553400.0
584,2019-08-02 12:50:00,26.520000457763672,26.540000915527344,26.450000762939453,26.530000686645508,405400.0
585,2019-08-02 12:55:00,26.530000686645508,26.579999923706055,26.520000457763672,26.559999465942383,217000.0
586,2019-08-02 13:00:00,26.549999237060547,26.559999465942383,26.530000686645508,26.559999465942383,153100.0
587,2019-08-02 13:05:00,26.559999465942383,26.56999969482422,26.530000686645508,26.559999465942383,176100.0
588,2019-08-02 13:10:00,26.559999465942383,26.579999923706055,26.549999237060547,26.56999969482422,184600.0
589,2019-08-02 13:15:00,26.579999923706055,26.65999984741211,26.579999923706055,26.65999984741211,615500.0
590,2019-08-02 13:20:00,26.65999984741211,26.690000534057617,26.649999618530273,26.690000534057617,253800.0
591,2019-08-02 13:25:00,26.690000534057617,26.709999084472656,26.6299991607666,26.670000076293945,385000.0
592,2019-08-02 13:30:00,26.670000076293945,26.670000076293945,26.6299991607666,26.649999618530273,86900.0
593,2019-08-02 13:35:00,26.649999618530273,26.65999984741211,26.639999389648438,26.639999389648438,76800.0
594,2019-08-02 13:40:00,26.639999389648438,26.649999618530273,26.600000381469727,26.649999618530273,185500.0
595,2019-08-02 13:45:00,26.649999618530273,26.649999618530273,26.579999923706055,26.59000015258789,211200.0
596,2019-08-02 13:50:00,26.59000015258789,26.610000610351562,26.559999465942383,26.579999923706055,145500.0
597,2019-08-02 13:55:00,26.579999923706055,26.600000381469727,26.549999237060547,26.56999969482422,284200.0
598,2019-08-02 14:00:00,26.579999923706055,26.59000015258789,26.559999465942383,26.579999923706055,151600.0
599,2019-08-02 14:05:00,26.59000015258789,26.59000015258789,26.549999237060547,26.559999465942383,144500.0
600,2019-08-02 14:10:00,26.549999237060547,26.610000610351562,26.549999237060547,26.559999465942383,258000.0
601,2019-08-02 14:15:00,26.579999923706055,26.59000015258789,26.540000915527344,26.540000915527344,195700.0
602,2019-08-02 14:20:00,26.540000915527344,26.579999923706055,26.510000228881836,26.520000457763672,176900.0
603,2019-08-02 14:25:00,26.530000686645508,26.559999465942383,26.5,26.520000457763672,234200.0
604,2019-08-02 14:30:00,26.520000457763672,26.549999237060547,26.510000228881836,26.530000686645508,161700.0
605,2019-08-02 14:35:00,26.530000686645508,26.540000915527344,26.450000762939453,26.479999542236328,438000.0
606,2019-08-02 14:40:00,26.489999771118164,26.5,26.459999084472656,26.469999313354492,166300.0
607,2019-08-02 14:45:00,26.469999313354492,26.479999542236328,26.450000762939453,26.450000762939453,279500.0
608,2019-08-02 14:50:00,26.459999084472656,26.520000457763672,26.440000534057617,26.5,371600.0
609,2019-08-02 14:55:00,26.510000228881836,26.549999237060547,26.5,26.510000228881836,314200.0
610,2019-08-02 15:00:00,26.520000457763672,26.520000457763672,26.479999542236328,26.5,164000.0
611,2019-08-02 15:05:00,26.510000228881836,26.520000457763672,26.489999771118164,26.5,147200.0
612,2019-08-02 15:10:00,26.5,26.510000228881836,26.459999084472656,26.510000228881836,259100.0
613,2019-08-02 15:15:00,26.510000228881836,26.549999237060547,26.5,26.520000457763672,217600.0
614,2019-08-02 15:20:00,26.520000457763672,26.540000915527344,26.479999542236328,26.540000915527344,168000.0
615,2019-08-02 15:25:00,26.520000457763672,26.540000915527344,26.5,26.520000457763672,131100.0
616,2019-08-02 15:30:00,26.520000457763672,26.540000915527344,26.5,26.530000686645508,258400.0
617,2019-08-02 15:35:00,26.540000915527344,26.540000915527344,26.520000457763672,26.530000686645508,150400.0
618,2019-08-02 15:40:00,26.530000686645508,26.600000381469727,26.520000457763672,26.59000015258789,501800.0
619,2019-08-02 15:45:00,26.59000015258789,26.6200008392334,26.579999923706055,26.600000381469727,318800.0
620,2019-08-02 15:50:00,26.600000381469727,26.610000610351562,26.579999923706055,26.600000381469727,162100.0
621,2019-08-02 15:55:00,26.600000381469727,26.610000610351562,26.579999923706055,26.600000381469727,192900.0
622,2019-08-02 16:00:00,26.600000381469727,26.649999618530273,26.59000015258789,26.639999389648438,425600.0
623,2019-08-02 16:05:00,26.649999618530273,26.649999618530273,26.579999923706055,26.579999923706055,303000.0
624,2019-08-02 16:10:00,26.59000015258789,26.600000381469727,26.459999084472656,26.540000915527344,639500.0
625,2019-08-02 16:15:00,26.540000915527344,26.559999465942383,26.5,26.549999237060547,167500.0
626,2019-08-02 16:20:00,26.549999237060547,26.610000610351562,26.540000915527344,26.610000610351562,286700.0
627,2019-08-02 16:25:00,26.610000610351562,26.6299991607666,26.549999237060547,26.56999969482422,688800.0
628,2019-08-02 16:30:00,26.56999969482422,26.579999923706055,26.540000915527344,26.540000915527344,305500.0
629,2019-08-02 16:35:00,26.549999237060547,26.59000015258789,26.530000686645508,26.59000015258789,943600.0
630,2019-08-02 16:40:00,26.59000015258789,26.600000381469727,26.549999237060547,26.600000381469727,748300.0
631,2019-08-02 16:45:00,26.59000015258789,26.670000076293945,26.579999923706055,26.6200008392334,1304800.0
632,2019-08-02 16:50:00,26.6200008392334,26.649999618530273,26.559999465942383,26.639999389648438,625200.0
633,2019-08-02 16:55:00,,,,,
634,2019-08-02 17:05:00,26.52,26.52,26.52,26.52,2294700.0
